Introducción a Tidyverse
…
```r
df %>%  
* group_by(GENERO)
```
]]
.column[.content[

```
  # A tibble: 27,904 × 9
  # Groups:   GENERO [3]
     FECHA_ADMINISTRACION GRUPO_ETARIO GENERO VACUNA  TIPO_EFECTOR DOSIS_1 DOSIS_2
     <chr>                <chr>        <chr>  <chr>   <chr>          <int>   <int>
   1 29JAN2021:00:00:00   31 a 40      M      Sputnik Público            4     168
   2 29JAN2021:00:00:00   31 a 40      M      Sputnik Público nac…       0      17
   3 29JAN2021:00:00:00   41 a 50      F      Sputnik Privado            0      32
   4 29JAN2021:00:00:00   41 a 50      F      Sputnik Público           15     251
   5 29JAN2021:00:00:00   41 a 50      F      Sputnik Público nac…       0       9
   6 08JAN2021:00:00:00   41 a 50      F      Sputnik Público nac…      14       0
   7 08JAN2021:00:00:00   41 a 50      M      Sputnik Privado           18       0
   8 08JAN2021:00:00:00   41 a 50      M      Sputnik Público          169       0
   9 08JAN2021:00:00:00   41 a 50      M      Sputnik Público nac…       4       0
  10 08JAN2021:00:00:00   51 a 60      F      Sputnik Privado           14       0
  # … with 27,894 more rows, and 2 more variables: ID_CARGA <lgl>, DOSIS_3 <int>
```
…
